﻿T_card_dem/T_card_max , ratio_w_eng_max
	0.3               ,    0.0
	0.4               ,    0.0
	0.5               ,    0.2
	0.6               ,    0.4
	0.7               ,    0.8
	0.9               ,    1.0
	1.0               ,    1.0