﻿amps,rpm,efficiency
30.00,2000,0.62
30.00,4000,0.64
30.00,6000,0.53
81.00,2000,0.7
81.00,4000,0.67
81.00,6000,0.55
159.00,2000,0.30
159.00,4000,0.70
159.00,6000,0.60
189.00,2000,0
189.00,4000,0.74
189.00,6000,0.65
204.00,2000,0
204.00,4000.0.7
204.00,6000,0.7
375.00,2000,0
375.00,2000,0.68
375.00,2000,0.67
408.00,2000,0
408.00,2000,0.6
408.00,2000,0.62