Algorithm       Hash                                                                   Path
---------       ----                                                                   ----
SHA256          3FCCE1AD83687CC1F6E825B2465BF3E8EE25C97586702E4EDDC9DBC84C5A65C9       2020_08_14_VectoDEA-1.2.4.2052.zip


Algorithm       Hash                                                                   Path
---------       ----                                                                   ----
SHA256          E1FFED380A4A9A28450AD7ED88E34EE3A6C36D05294274B543770B28BB77BCDC       hashingcmd.exe
SHA256          A64C38A2B8C47EAEDB107D47352D2DB49946F2507D97CC528EA5125A662E614B       HashingTool.exe
SHA256          AA9C0F8E6770297466DF601AAB40A3958F1E3886D0EFF680C9D761BBD7B9B540       VECTO.exe
SHA256          26DDE1B9D0F24F6A4C3B1BDDC56244F5FCF5F3E73875FCB19662E9EEDB14A833       vectocmd.exe
SHA256          303EA8E6C2003DA476CB6F3B26174F4F1E8219E3654266FB2927090A159E0331       AdvancedAuxiliaryInterfaces.dll
SHA256          36F0C319BE310ED62350F912A34CFE4B322FEF203085FFE04800694E8AE25D98       BusAuxiliaries.dll
SHA256          1796277A7AA9F2A9835C070D28FED44B3614CA221A2C1AFFC21A4C4E41194C3F       Castle.Core.dll
SHA256          DF8EC2E0245829DDEC5B79F1918C3AE3A3FA540A5A0E3C410E2B6EF0BEBC7927       Newtonsoft.Json.dll
SHA256          01CC80A16323F56191596013EEF1DE7E43271D6F991F4740B1FCC5195D8AB5BD       Ninject.dll
SHA256          DDF048DDAAA9B5D1D734CCA64E269E21465BD83E35F4FD2585AFB900AEF9FC9B       Ninject.Extensions.Factory.dll
SHA256          E196C0B84FA16CA895565C0AB611715F0721425F5E73340EA183FFA049F7D79B       NLog.dll
SHA256          9B7EB6DE62FF1E6A812FA47697FDB2ABCEAD85AA2554ABF12416FC569DD4462E       Omu.ValueInjecter.dll
SHA256          6321BAE95FC6A9218C98993386972290334FC598A5D36E16BF614A8D46B89316       VectoCommon.dll
SHA256          BE81EA0F918606EFE8BEB8CE5E1EAB5F842CF7E7D4D81BE0E990A5B0D74AB0D5       VectoCore.dll
SHA256          15EDB70491EC93B61160F7C9517C6CE17E8EFDB5E4D48894E1434FA46341DB46       VectoHashing.dll
